PathWeightSampling.jl · PathWeightSampling.jl
…
julia> result = mutual_information(system, DirectMCEstimate(256), num_samples=1000)
Here we just made a default choice for which marginalization algorithm to use. This computation takes approximately a minute on a typical laptop. The result  is a DataFrame with three columns and 1000 rows:

1000×3 DataFrame
  Row │ TimeConditional  TimeMarginal  MutualInformation                 
      │ Float64          Float64       Vector{Float64}                   
──────┼──────────────────────────────────────────────────────────────────
    1 │     0.000180898     0.0508378  [0.0, -0.67167, 0.388398, -0.343…
  ⋮   │        ⋮              ⋮                        ⋮
 1000 │     0.00020897      0.0694072  [0.0, 0.254173, 0.362607, 0.2584…
                                                         998 rows omitted
…
